{
  "wrapper": "div.cart-sections-wrapper",
  "sections": {
    "title": {
      "type": "cart-title",
      "settings": {}
    },
    "cart-items": {
      "type": "main-cart-items",
      "settings": {
        "show_vendor": false
      }
    },
    "cart-footer": {
      "type": "main-cart-sidebar",
      "blocks": {
        "subtotal": {
          "type": "subtotal",
          "settings": {}
        },
        "buttons": {
          "type": "buttons",
          "settings": {}
        }
      },
      "block_order": [
        "subtotal",
        "buttons"
      ],
      "settings": {
        "show_cart_note": true,
        "textarea_placeholder": "Need to be more specific about your patch placement? add a note for our customizers!",
        "label_order": "Please allow up to 1 week for non-customized orders to be processed.<br><br> Currently, customized orders will ship within 10 business days. Customized orders can’t be changed or cancelled, so please make sure your design looks just right! Orders that contain both a customized and non-customized item will ship together when the customized item is ready. <br><br> By checking this box, I agree to these terms.",
        "label_error": "This is a required field",
        "extras_copy": "We will package your entire order together in a signature iridescent wraps, stickers, and more!",
        "extras_disclaimer": "*Patches and Accessories are not wrapped in the iridescent packaging.",
        "green_copy": "Choose this eco-friendly option and we'll simplify the packaging by removing extras such as iridescent wrap, stickers, and seasonal inserts.",
        "gift_copy": "Your recipient will receive your gift wrapped in one iridescent dust bag with iridescent paper, and a gift note!",
        "gift_copy_individual": "You've chosen to individually wrap one or more products in your cart. Please unselect all individual gift wrapping if you would like to explore these options for wrapping your entire order."
      }
    },
    "featured-products": {
      "type": "featured-collection",
      "disabled": true,
      "settings": {
        "title": "Featured collection",
        "collection": "all",
        "products_to_show": 4,
        "show_view_all": true,
        "swipe_on_mobile": false,
        "image_ratio": "square",
        "show_secondary_image": false,
        "add_image_padding": false,
        "show_image_outline": true,
        "show_vendor": false,
        "show_rating": false
      }
    },
    "nosto_cart": {
      "type": "nosto-cart",
      "disabled": true,
      "settings": {}
    }
  },
  "order": [
    "title",
    "cart-items",
    "cart-footer",
    "featured-products",
    "nosto_cart"
  ]
}