{
  "sections": {
    "customizer-start": {
      "type": "customizer-index-template",
      "disabled": true,
      "settings": {
        "enable": false,
        "page_title": "Start Customizing",
        "page_description": "Choose your favorite style, pick a color, and make your piece uniquely yours with our signature Patches"
      }
    },
    "customizer-pouches": {
      "type": "customizer-index-template",
      "blocks": {
        "e164e69e-8c78-4743-b121-8097866f19f4": {
          "type": "section_title",
          "settings": {
            "section_name": "Pouches",
            "section_description": "",
            "section_is_hidden": false
          }
        },
        "9baca5cb-5e64-43df-a4d8-f9c02f85627c": {
          "type": "product_type",
          "settings": {
            "product_type_image": "shopify:\/\/shop_images\/Pre-Customized_4_42.png",
            "product_type_id": "classic-large-pouch",
            "product_type_collection": "customizer-large-pouch",
            "product_type_title": "Large Pouch",
            "product_type_is_hidden": false
          }
        },
        "10feb28d-a618-4853-8c67-0f82a0a2b24a": {
          "type": "product_type",
          "settings": {
            "product_type_image": "shopify:\/\/shop_images\/Mini_Pouch_Bubble_Gum_5f2db5b6-9f7c-4241-8af2-9acf86cea36d.jpg",
            "product_type_id": "new-classic-mini-pouch",
            "product_type_collection": "customizer-mini-pouch",
            "product_type_title": "Mini Pouch",
            "product_type_is_hidden": false
          }
        },
        "1580700099358": {
          "type": "product_type",
          "settings": {
            "product_type_image": "shopify:\/\/shop_images\/Pre-Customized_4_43.png",
            "product_type_id": "travel-pouch",
            "product_type_collection": "customizer-tsa-approved-clear-pouch",
            "product_type_title": "Travel Pouch",
            "product_type_is_hidden": false
          }
        },
        "0512a22d-b592-4eba-8355-3eafa0eddd0f": {
          "type": "product_type",
          "settings": {
            "product_type_image": "shopify:\/\/shop_images\/img_10_4.png",
            "product_type_id": "pencil-case",
            "product_type_collection": "customizer-pencil-case",
            "product_type_title": "Pencil Case",
            "product_type_is_hidden": false
          }
        },
        "84257408-e6a6-45e6-b113-f29b3e594713": {
          "type": "product_type",
          "disabled": true,
          "settings": {
            "product_type_image": "shopify:\/\/shop_images\/SCL_ClearMiniPouch_Camel_1_fcf97887-1dc1-4d9e-9386-a3f141403135.png",
            "product_type_id": "camel-22-clear-mini-pouch",
            "product_type_collection": "customizer-clear-front-mini",
            "product_type_title": "Clear Front Mini Pouch",
            "product_type_is_hidden": false
          }
        },
        "1519946030168": {
          "type": "product_type",
          "settings": {
            "product_type_image": "shopify:\/\/shop_images\/Pre-Customized_4_44.png",
            "product_type_id": "classic-clear-flat-pouch",
            "product_type_collection": "customizer-flat-pouch",
            "product_type_title": "Flat Pouch",
            "product_type_is_hidden": false
          }
        },
        "1538516052834": {
          "type": "product_type",
          "settings": {
            "product_type_image": "shopify:\/\/shop_images\/Pre-Customized_4_46.png",
            "product_type_id": "textured-open-top-mirror-pouch",
            "product_type_collection": "customizer-mirror-open-top-pouch",
            "product_type_title": "Open Top",
            "product_type_is_hidden": false
          }
        },
        "c44662b6-29c4-4433-8b7f-a4961987d6bf": {
          "type": "product_type",
          "settings": {
            "product_type_image": "shopify:\/\/shop_images\/SCL_SmallPouch_Emerald_1_caffbddd-c85e-4124-852b-8365c73d4b8c.png",
            "product_type_id": "emerald-22-nylon-small-pouch",
            "product_type_collection": "customizer-small-pouch",
            "product_type_title": "Small Pouch",
            "product_type_is_hidden": false
          }
        },
        "08ad6cbf-e9bf-43da-b92a-bd2c27d49d87": {
          "type": "product_type",
          "settings": {
            "product_type_image": "shopify:\/\/shop_images\/img_6_1.jpg",
            "product_type_id": "mauve-22-clear-small-pouch",
            "product_type_collection": "customizer-clear-front-small-pouch",
            "product_type_title": "Clear Front Small Pouch",
            "product_type_is_hidden": false
          }
        },
        "f7878450-6be4-4f8d-89bf-a40058cce630": {
          "type": "product_type",
          "settings": {
            "product_type_image": "shopify:\/\/shop_images\/img-G9_7eba0829-4cbf-4145-bf5b-113c53f7520d.png",
            "product_type_id": "vanity-case",
            "product_type_collection": "customizer-vanity-case",
            "product_type_title": "Vanity Case",
            "product_type_is_hidden": false
          }
        },
        "b7acd91b-8781-430a-9ecc-48b37df6f1a1": {
          "type": "product_type",
          "disabled": true,
          "settings": {
            "product_type_image": "shopify:\/\/shop_images\/SCL-DIS-CM-GVSI-003_576x_copiar.png",
            "product_type_id": "mickey-mouse-crossbody-bag",
            "product_type_collection": "customizer-crossbody-bag",
            "product_type_title": "Mickey Mouse Crossbody Bag",
            "product_type_is_hidden": false
          }
        },
        "0a7c498f-e546-482e-ba12-52788f55a9e5": {
          "type": "product_type",
          "disabled": true,
          "settings": {
            "product_type_image": "shopify:\/\/shop_images\/img_30.png",
            "product_type_id": "round-jewelry-box",
            "product_type_collection": "customizer-round-box",
            "product_type_title": "Round Jewelry Box",
            "product_type_is_hidden": false
          }
        }
      },
      "block_order": [
        "e164e69e-8c78-4743-b121-8097866f19f4",
        "9baca5cb-5e64-43df-a4d8-f9c02f85627c",
        "10feb28d-a618-4853-8c67-0f82a0a2b24a",
        "1580700099358",
        "0512a22d-b592-4eba-8355-3eafa0eddd0f",
        "84257408-e6a6-45e6-b113-f29b3e594713",
        "1519946030168",
        "1538516052834",
        "c44662b6-29c4-4433-8b7f-a4961987d6bf",
        "08ad6cbf-e9bf-43da-b92a-bd2c27d49d87",
        "f7878450-6be4-4f8d-89bf-a40058cce630",
        "b7acd91b-8781-430a-9ecc-48b37df6f1a1",
        "0a7c498f-e546-482e-ba12-52788f55a9e5"
      ],
      "settings": {
        "enable": true,
        "page_title": "Start Customizing",
        "page_description": "Choose your favorite style, pick a color, and make your piece uniquely yours with our signature Patches"
      }
    },
    "customizer-bags": {
      "type": "customizer-index-template",
      "blocks": {
        "5140acd2-2902-4075-9060-4d63bb620f31": {
          "type": "section_title",
          "settings": {
            "section_name": "Bags",
            "section_description": "",
            "section_is_hidden": false
          }
        },
        "1589981236800": {
          "type": "product_type",
          "settings": {
            "product_type_image": "shopify:\/\/shop_images\/Fanny_pack_Flamingo.jpg",
            "product_type_id": "classic-fanny-pack",
            "product_type_collection": "customizer-classic-fanny-pack",
            "product_type_title": "Fanny Pack",
            "product_type_is_hidden": false
          }
        },
        "3531bda8-0d6a-4946-b2a0-5ec808g46819": {
          "type": "product_type",
          "settings": {
            "product_type_image": "shopify:\/\/shop_images\/img_42.png",
            "product_type_id": "classic-jumbo-fanny-pack",
            "product_type_collection": "customizer-jumbo-fanny-pack",
            "product_type_title": "Jumbo Fanny Pack",
            "product_type_is_hidden": false
          }
        },
        "7b76783d-1500-450a-bebc-e7d1e9e7e63e": {
          "type": "product_type",
          "settings": {
            "product_type_image": "shopify:\/\/shop_images\/img_1_black_1.jpg",
            "product_type_id": "black-white-stadium-clear-fanny-pack",
            "product_type_collection": "customizer-classic-fanny-pack",
            "product_type_title": "Stadium Clear Fanny Pack",
            "product_type_is_hidden": false
          }
        },
        "1537202478402": {
          "type": "product_type",
          "settings": {
            "product_type_image": "shopify:\/\/shop_images\/Backpack_Peach.jpg",
            "product_type_id": "classic-backpack",
            "product_type_collection": "customizer-backpack",
            "product_type_title": "Classic Backpack",
            "product_type_is_hidden": false
          }
        },
        "1557766014485": {
          "type": "product_type",
          "settings": {
            "product_type_image": "shopify:\/\/shop_images\/img_28_0c570383-8d01-4a96-ade0-17777c6fd21a.jpg",
            "product_type_id": "classic-mini-backpack",
            "product_type_collection": "customizer-kids-backpack",
            "product_type_title": "Mini Backpack",
            "product_type_is_hidden": false
          }
        },
        "857c62bc-99e6-4f5d-a91d-5b4972ac17a3": {
          "type": "product_type",
          "settings": {
            "product_type_image": "shopify:\/\/shop_images\/img_27_8c1f64c6-6803-4395-8dfa-485f0c0611c5.jpg",
            "product_type_id": "chocolate-22-nylon-flap-backpack",
            "product_type_collection": "customizer-flap-backpack",
            "product_type_title": "Flap Backpack",
            "product_type_is_hidden": false
          }
        },
        "1519947781801": {
          "type": "product_type",
          "settings": {
            "product_type_image": "shopify:\/\/shop_images\/Tote_Cotton_Candy.jpg",
            "product_type_id": "classic-tote-bag",
            "product_type_collection": "customizer-tote",
            "product_type_title": "Tote Bag",
            "product_type_is_hidden": false
          }
        },
        "fe68798d-3a44-436b-9465-13a710a00131": {
          "type": "product_type",
          "settings": {
            "product_type_image": "shopify:\/\/shop_images\/SCL-NMT-009_copy.jpg",
            "product_type_id": "classic-mini-tote-bag",
            "product_type_collection": "customizer-corduroy-mini-tote-bag",
            "product_type_title": "Mini Tote Bag",
            "product_type_is_hidden": false
          }
        },
        "1519948003559": {
          "type": "product_type",
          "settings": {
            "product_type_image": "shopify:\/\/shop_images\/Duffle_PeachPeriwinkle_1.jpg",
            "product_type_id": "nylon-duffle-bag-2019",
            "product_type_collection": "customizer-duffle-bag",
            "product_type_title": "Duffle Bag",
            "product_type_is_hidden": false
          }
        },
        "1599081703035": {
          "type": "product_type",
          "settings": {
            "product_type_image": "shopify:\/\/shop_images\/Mini_Duffle_Sand_89400b10-536d-4c5e-bb10-4728bc587405.jpg",
            "product_type_id": "classic-mini-duffle-bag",
            "product_type_collection": "customizer-mini-duffle-bag",
            "product_type_title": "Mini Duffle Bag",
            "product_type_is_hidden": false
          }
        },
        "b5718f52-d030-4d6b-85a8-8ac0f9ede239": {
          "type": "product_type",
          "settings": {
            "product_type_image": "shopify:\/\/shop_images\/Pre-Customized_2_11.png",
            "product_type_id": "classic-duffle",
            "product_type_collection": "customizer-bts-duffle-bag",
            "product_type_title": "Duffle Bag <br> Limited Edition Color",
            "product_type_is_hidden": false
          }
        },
        "345d415c-897f-41ea-85a9-522ea03fc61f": {
          "type": "product_type",
          "settings": {
            "product_type_image": "shopify:\/\/shop_images\/img17_c4fa4913-d463-43fd-b640-072df04cddb9.jpg",
            "product_type_id": "lunch-tote-3",
            "product_type_collection": "customizer-lunch-box",
            "product_type_title": "Lunch Tote",
            "product_type_is_hidden": false
          }
        },
        "9776231c-5d3b-4007-a000-9f12fc0g4f99": {
          "type": "product_type",
          "settings": {
            "product_type_image": "shopify:\/\/shop_images\/SCL_DylanBag_Bubblegum_1.jpg",
            "product_type_id": "dylan-bag",
            "product_type_collection": "dylan-bag",
            "product_type_title": "Dylan Bag",
            "product_type_is_hidden": false
          }
        }
      },
      "block_order": [
        "5140acd2-2902-4075-9060-4d63bb620f31",
        "1589981236800",
        "3531bda8-0d6a-4946-b2a0-5ec808g46819",
        "7b76783d-1500-450a-bebc-e7d1e9e7e63e",
        "1537202478402",
        "1557766014485",
        "857c62bc-99e6-4f5d-a91d-5b4972ac17a3",
        "1519947781801",
        "fe68798d-3a44-436b-9465-13a710a00131",
        "1519948003559",
        "1599081703035",
        "b5718f52-d030-4d6b-85a8-8ac0f9ede239",
        "345d415c-897f-41ea-85a9-522ea03fc61f",
        "9776231c-5d3b-4007-a000-9f12fc0g4f99"
      ],
      "settings": {
        "enable": true,
        "page_title": "",
        "page_description": ""
      }
    },
    "customizer-accessories": {
      "type": "customizer-index-template",
      "blocks": {
        "9776231c-5d3b-4007-a000-9f12fc0g9fbd": {
          "type": "section_title",
          "settings": {
            "section_name": "Accessories",
            "section_description": "",
            "section_is_hidden": false
          }
        },
        "93746447-3979-49d4-8fd6-bb2df71d7f96": {
          "type": "product_type",
          "settings": {
            "product_type_image": "shopify:\/\/shop_images\/SCL-NKCW-005_1.jpg",
            "product_type_id": "classic-mini-keychain-wallet",
            "product_type_collection": "customizer-keychain-wallet",
            "product_type_title": "Classic Keychain Wallet",
            "product_type_is_hidden": false
          }
        },
        "13362bfe-0585-4180-98c5-06f564e34ba4": {
          "type": "product_type",
          "settings": {
            "product_type_image": "shopify:\/\/shop_images\/img_17.png",
            "product_type_id": "heart-bag-charm-1",
            "product_type_collection": "customizer-star-bag",
            "product_type_title": "Heart Bag Charm",
            "product_type_is_hidden": false
          }
        },
        "ac6580db-feb1-46df-adcc-fda02c9cc974": {
          "type": "product_type",
          "settings": {
            "product_type_image": "shopify:\/\/shop_images\/SCL-NTFW-017.jpg",
            "product_type_id": "classic-tri-fold-wallet",
            "product_type_collection": "customizer-tri-fold-wallet",
            "product_type_title": "Classic Tri Fold Wallet",
            "product_type_is_hidden": false
          }
        },
        "1528902296947": {
          "type": "product_type",
          "settings": {
            "product_type_image": "shopify:\/\/shop_images\/Passport_Case_Peach.jpg",
            "product_type_id": "passport-case",
            "product_type_collection": "customizer-passport-case",
            "product_type_title": "Passport Case",
            "product_type_is_hidden": false
          }
        },
        "1525714175433": {
          "type": "product_type",
          "settings": {
            "product_type_image": "shopify:\/\/shop_images\/img_49.jpg",
            "product_type_id": "luggage-tag",
            "product_type_collection": "customizer-luggage-tag",
            "product_type_title": "Luggage Tag",
            "product_type_is_hidden": false
          }
        },
        "1597749715495": {
          "type": "product_type",
          "settings": {
            "product_type_image": "shopify:\/\/shop_images\/Notebook_Avocado.jpg",
            "product_type_id": "textured-notebook",
            "product_type_collection": "customizer-textured-notebook",
            "product_type_title": "Textured Notebook",
            "product_type_is_hidden": false
          }
        },
        "1593006621490": {
          "type": "product_type",
          "settings": {
            "product_type_image": "shopify:\/\/shop_images\/Jewelry_Rol_Cotton_Candy.jpg",
            "product_type_id": "classic-jewelry-roll",
            "product_type_collection": "customizer-classic-jewelry-roll",
            "product_type_title": "Classic Jewelry Roll",
            "product_type_is_hidden": false
          }
        },
        "13362bfe-0585-4180-9841-06f564e34ba4": {
          "type": "product_type",
          "settings": {
            "product_type_image": "shopify:\/\/shop_images\/img_1_1_309a16c2-f1d4-465e-a1c3-ab0af478e74c.jpg",
            "product_type_id": "denim-heart-change-purse",
            "product_type_collection": "heart-bag-charm",
            "product_type_title": "Heart Change Purse",
            "product_type_is_hidden": false
          }
        }
      },
      "block_order": [
        "9776231c-5d3b-4007-a000-9f12fc0g9fbd",
        "93746447-3979-49d4-8fd6-bb2df71d7f96",
        "13362bfe-0585-4180-98c5-06f564e34ba4",
        "ac6580db-feb1-46df-adcc-fda02c9cc974",
        "1528902296947",
        "1525714175433",
        "1597749715495",
        "1593006621490",
        "13362bfe-0585-4180-9841-06f564e34ba4"
      ],
      "settings": {
        "enable": true,
        "page_title": "",
        "page_description": ""
      }
    }
  },
  "order": [
    "customizer-start",
    "customizer-pouches",
    "customizer-bags",
    "customizer-accessories"
  ]
}