{
  "sections": {
    "1645831054b15f36d1": {
      "type": "video_section",
      "disabled": true,
      "settings": {
        "image": "shopify:\/\/shop_images\/Desktop-100_783af6ec-136e-47ba-b0d6-92ea57d01283.jpg",
        "image_2": "shopify:\/\/shop_images\/Mobile-100_285b5df8-743e-49a2-8384-7d78d7d7490b.jpg",
        "image_m": "shopify:\/\/shop_images\/Desktop-100_783af6ec-136e-47ba-b0d6-92ea57d01283.jpg",
        "image_2_m": "shopify:\/\/shop_images\/Mobile-100_285b5df8-743e-49a2-8384-7d78d7d7490b.jpg",
        "button_label_1": "Button label",
        "button_link_1": "",
        "button_label_2": "Button label",
        "button_link_2": "",
        "heading_title": "Heading title",
        "heading_title_2": "Heading title",
        "color_white": false
      }
    },
    "1642074178cac1c8c2": {
      "type": "hero-slider",
      "blocks": {
        "345e5175-919f-4b71-a4ff-e4706402c6e2": {
          "type": "slide",
          "disabled": true,
          "settings": {
            "image": "shopify:\/\/shop_images\/Libbys_Bday_Banners_JDesktop3.jpg",
            "image_m": "shopify:\/\/shop_images\/Libbys_Bday_Banners_JMobile3.jpg",
            "slide_label": "",
            "slide_subtitle": "",
            "color_white": false,
            "horizontal-text-alignment": "center",
            "vertical-text-alignment": "center",
            "mobile-vertical-text-alignment": "center",
            "button_label": "",
            "button_link": "shopify:\/\/collections\/all-products"
          }
        },
        "99698ebe-f02d-477f-8c08-34c289cd84e6": {
          "type": "slide",
          "settings": {
            "image": "shopify:\/\/shop_images\/12Days_Gifting_Banners_LastDay_desktop.jpg",
            "image_m": "shopify:\/\/shop_images\/12Days_Gifting_Banners_LastDay_mobile.jpg",
            "slide_label": "",
            "slide_subtitle": "",
            "color_white": false,
            "horizontal-text-alignment": "center",
            "vertical-text-alignment": "center",
            "mobile-vertical-text-alignment": "center",
            "button_label": "",
            "button_link": "shopify:\/\/collections\/all-products"
          }
        },
        "63b8fb47-dd8e-49ea-a6d4-134ae2b0cb95": {
          "type": "slide",
          "settings": {
            "image": "shopify:\/\/shop_images\/Libbys_Bday_Banners_JDesktop4.jpg",
            "image_m": "shopify:\/\/shop_images\/Libbys_Bday_Banners_JMobile4_90a598c2-5723-40a2-a099-3b6e8ae8f9c9.jpg",
            "slide_label": "",
            "slide_subtitle": "",
            "color_white": false,
            "horizontal-text-alignment": "center",
            "vertical-text-alignment": "center",
            "mobile-vertical-text-alignment": "center",
            "button_label": "",
            "button_link": "shopify:\/\/collections\/all-products"
          }
        },
        "1a6b77e7-3ae9-4437-82fd-a4f0ef3edc54": {
          "type": "slide",
          "settings": {
            "image": "shopify:\/\/shop_images\/GG_Banners-Desktop.jpg",
            "image_m": "shopify:\/\/shop_images\/GG_Banners-Mobile.jpg",
            "slide_label": "",
            "slide_subtitle": "",
            "color_white": false,
            "horizontal-text-alignment": "center",
            "vertical-text-alignment": "center",
            "mobile-vertical-text-alignment": "center",
            "button_label": "",
            "button_link": "shopify:\/\/pages\/gift-guide-2022"
          }
        },
        "1fb56f33-6932-4978-98de-e0ec7956b62f": {
          "type": "slide",
          "disabled": true,
          "settings": {
            "image": "shopify:\/\/shop_images\/Desktop2-100_4.jpg",
            "image_m": "shopify:\/\/shop_images\/Non-Launch_Banners_Mobile2.jpg",
            "slide_label": "",
            "slide_subtitle": "",
            "color_white": false,
            "horizontal-text-alignment": "center",
            "vertical-text-alignment": "center",
            "mobile-vertical-text-alignment": "center",
            "button_label": "",
            "button_link": "shopify:\/\/collections\/2019"
          }
        },
        "aa2826c6-c42b-4384-a66f-784638b69e48": {
          "type": "slide",
          "disabled": true,
          "settings": {
            "image": "shopify:\/\/shop_images\/Libbys_Bday_Banners_JDesktop2.jpg",
            "image_m": "shopify:\/\/shop_images\/Libbys_Bday_Banners_JMobile2_ff321f9e-c5ae-4757-985e-7cf8d2fcdadc.jpg",
            "slide_label": "",
            "slide_subtitle": "",
            "color_white": false,
            "horizontal-text-alignment": "center",
            "vertical-text-alignment": "center",
            "mobile-vertical-text-alignment": "center",
            "button_label": "",
            "button_link": "shopify:\/\/collections\/all-products"
          }
        },
        "224bc2f1-1288-4fba-a65b-43c576a02d87": {
          "type": "slide",
          "disabled": true,
          "settings": {
            "image": "shopify:\/\/shop_images\/GiftGuide_banners_JDesktop3_a1fd75c1-03c8-41c4-ba51-0f6dc4c788af.jpg",
            "image_m": "shopify:\/\/shop_images\/GiftGuide_banners_JMobile3_aa94dc16-de3a-4199-9f5a-87d3d4159547.jpg",
            "slide_label": "",
            "slide_subtitle": "",
            "color_white": false,
            "horizontal-text-alignment": "center",
            "vertical-text-alignment": "center",
            "mobile-vertical-text-alignment": "center",
            "button_label": "",
            "button_link": "shopify:\/\/pages\/gift-guide-2022"
          }
        },
        "e0a97e1b-bc8b-45ba-ab8b-36f16d9c1d1f": {
          "type": "slide",
          "disabled": true,
          "settings": {
            "image": "shopify:\/\/shop_images\/Desktop1-text-100_2.jpg",
            "image_m": "shopify:\/\/shop_images\/Salood_Banners_FINAL_Mobile1.jpg",
            "slide_label": "",
            "slide_subtitle": "",
            "color_white": false,
            "horizontal-text-alignment": "center",
            "vertical-text-alignment": "center",
            "mobile-vertical-text-alignment": "center",
            "button_label": "",
            "button_link": "shopify:\/\/collections\/salood"
          }
        },
        "29adf4c5-b5a0-40f3-8c4e-c16ebdb4455d": {
          "type": "slide",
          "disabled": true,
          "settings": {
            "image": "shopify:\/\/shop_images\/12Days_Gifting_Banners_Embroidery_desktop_1.jpg",
            "image_m": "shopify:\/\/shop_images\/12Days_Gifting_Banners_Embroidery_mobile_1.jpg",
            "slide_label": "",
            "slide_subtitle": "",
            "color_white": false,
            "horizontal-text-alignment": "center",
            "vertical-text-alignment": "center",
            "mobile-vertical-text-alignment": "center",
            "button_label": "",
            "button_link": "shopify:\/\/collections\/just-in"
          }
        },
        "19cc869c-b376-4179-ba47-76ce82e490af": {
          "type": "slide",
          "disabled": true,
          "settings": {
            "image": "shopify:\/\/shop_images\/Desktop3-text-100_3.jpg",
            "image_m": "shopify:\/\/shop_images\/Salood_Banners_FINAL_Mobile_3_4d080ba3-3213-4cfd-9fe8-ed0f9dc27606.jpg",
            "slide_label": "",
            "slide_subtitle": "",
            "color_white": false,
            "horizontal-text-alignment": "center",
            "vertical-text-alignment": "center",
            "mobile-vertical-text-alignment": "center",
            "button_label": "",
            "button_link": "shopify:\/\/collections\/salood"
          }
        },
        "170ba8f7-9220-4118-9538-d82cc0fc1ac4": {
          "type": "slide",
          "disabled": true,
          "settings": {
            "image": "shopify:\/\/shop_images\/Desktop4-100_3.jpg",
            "image_m": "shopify:\/\/shop_images\/Salood_Banners_FINAL_Mobile_4_1.jpg",
            "slide_label": "",
            "slide_subtitle": "",
            "color_white": false,
            "horizontal-text-alignment": "center",
            "vertical-text-alignment": "center",
            "mobile-vertical-text-alignment": "center",
            "button_label": "",
            "button_link": "shopify:\/\/collections\/salood"
          }
        },
        "e50261fa-aaa1-4bf3-a3e1-227df260a69a": {
          "type": "slide",
          "disabled": true,
          "settings": {
            "image": "shopify:\/\/shop_images\/Desktop2-text-100_3.jpg",
            "image_m": "shopify:\/\/shop_images\/Salood_Banners_FINAL_Mobile2_cba9f64e-b684-4773-8856-a7c080e871e5.jpg",
            "slide_label": "",
            "slide_subtitle": "",
            "color_white": false,
            "horizontal-text-alignment": "center",
            "vertical-text-alignment": "center",
            "mobile-vertical-text-alignment": "center",
            "button_label": "",
            "button_link": "shopify:\/\/collections\/salood"
          }
        },
        "b4788b55-64a8-413d-86f6-56303d643a58": {
          "type": "slide",
          "disabled": true,
          "settings": {
            "image": "shopify:\/\/shop_images\/JDesktop4_1-100.jpg",
            "image_m": "shopify:\/\/shop_images\/Juicy_Banners_JMobile4_1.jpg",
            "slide_label": "",
            "slide_subtitle": "",
            "color_white": false,
            "horizontal-text-alignment": "center",
            "vertical-text-alignment": "center",
            "mobile-vertical-text-alignment": "center",
            "button_label": "",
            "button_link": "shopify:\/\/collections\/all-products"
          }
        },
        "d3d7f56f-2672-4805-982d-65eac2f4bf90": {
          "type": "slide",
          "disabled": true,
          "settings": {
            "image": "shopify:\/\/shop_images\/JDesktop2-100.jpg",
            "image_m": "shopify:\/\/shop_images\/Juicy_Banners_JMobile2.jpg",
            "slide_label": "",
            "slide_subtitle": "",
            "color_white": false,
            "horizontal-text-alignment": "center",
            "vertical-text-alignment": "center",
            "mobile-vertical-text-alignment": "center",
            "button_label": "",
            "button_link": "shopify:\/\/collections\/just-in"
          }
        },
        "3389684d-0656-46ba-a9f3-183f928b5797": {
          "type": "slide",
          "disabled": true,
          "settings": {
            "image": "shopify:\/\/shop_images\/JDesktop3-100.jpg",
            "image_m": "shopify:\/\/shop_images\/Juicy_Banners_JMobile3.jpg",
            "slide_label": "",
            "slide_subtitle": "",
            "color_white": false,
            "horizontal-text-alignment": "center",
            "vertical-text-alignment": "center",
            "mobile-vertical-text-alignment": "center",
            "button_label": "",
            "button_link": "shopify:\/\/collections\/just-in"
          }
        },
        "a5b156bf-2040-4689-bc0e-82f3cff6023b": {
          "type": "slide",
          "disabled": true,
          "settings": {
            "image": "shopify:\/\/shop_images\/JDesktop4-100_614c16a6-8c79-4756-81ce-c586a5940ce6.jpg",
            "image_m": "shopify:\/\/shop_images\/Juicy_Banners_JMobile4_6e02ab53-e16f-4e01-83c1-4d58190f0ee3.jpg",
            "slide_label": "",
            "slide_subtitle": "",
            "color_white": false,
            "horizontal-text-alignment": "center",
            "vertical-text-alignment": "center",
            "mobile-vertical-text-alignment": "center",
            "button_label": "",
            "button_link": "shopify:\/\/collections\/just-in"
          }
        },
        "31429654-26b9-4428-bcd9-63e0fcc5cc96": {
          "type": "slide",
          "disabled": true,
          "settings": {
            "image": "shopify:\/\/shop_images\/Packing_Cubes_Banner_Desktop2.jpg",
            "image_m": "shopify:\/\/shop_images\/Packing_Cubes_Banner_Mobile2.jpg",
            "slide_label": "",
            "slide_subtitle": "",
            "color_white": false,
            "horizontal-text-alignment": "center",
            "vertical-text-alignment": "center",
            "mobile-vertical-text-alignment": "center",
            "button_label": "",
            "button_link": "shopify:\/\/collections\/2019"
          }
        },
        "c012ff77-476b-48bf-81d0-0b6b3fc5c7f6": {
          "type": "slide",
          "disabled": true,
          "settings": {
            "image": "shopify:\/\/shop_images\/Packing_Cubes_Banner_Desktop3.jpg",
            "image_m": "shopify:\/\/shop_images\/Packing_Cubes_Banner_Mobile3.jpg",
            "slide_label": "",
            "slide_subtitle": "",
            "color_white": false,
            "horizontal-text-alignment": "center",
            "vertical-text-alignment": "center",
            "mobile-vertical-text-alignment": "center",
            "button_label": "",
            "button_link": "shopify:\/\/collections\/2019"
          }
        },
        "e9a0f58a-90a5-4b31-bf99-7c779dc43de1": {
          "type": "slide",
          "disabled": true,
          "settings": {
            "image": "shopify:\/\/shop_images\/Desktop3-text-100_1.jpg",
            "image_m": "shopify:\/\/shop_images\/Banners_MickeyHoliday_Text_Mobile_3.jpg",
            "slide_label": "",
            "slide_subtitle": "",
            "color_white": false,
            "horizontal-text-alignment": "center",
            "vertical-text-alignment": "center",
            "mobile-vertical-text-alignment": "center",
            "button_label": "",
            "button_link": "shopify:\/\/collections\/just-in"
          }
        }
      },
      "block_order": [
        "345e5175-919f-4b71-a4ff-e4706402c6e2",
        "99698ebe-f02d-477f-8c08-34c289cd84e6",
        "63b8fb47-dd8e-49ea-a6d4-134ae2b0cb95",
        "1a6b77e7-3ae9-4437-82fd-a4f0ef3edc54",
        "1fb56f33-6932-4978-98de-e0ec7956b62f",
        "aa2826c6-c42b-4384-a66f-784638b69e48",
        "224bc2f1-1288-4fba-a65b-43c576a02d87",
        "e0a97e1b-bc8b-45ba-ab8b-36f16d9c1d1f",
        "29adf4c5-b5a0-40f3-8c4e-c16ebdb4455d",
        "19cc869c-b376-4179-ba47-76ce82e490af",
        "170ba8f7-9220-4118-9538-d82cc0fc1ac4",
        "e50261fa-aaa1-4bf3-a3e1-227df260a69a",
        "b4788b55-64a8-413d-86f6-56303d643a58",
        "d3d7f56f-2672-4805-982d-65eac2f4bf90",
        "3389684d-0656-46ba-a9f3-183f928b5797",
        "a5b156bf-2040-4689-bc0e-82f3cff6023b",
        "31429654-26b9-4428-bcd9-63e0fcc5cc96",
        "c012ff77-476b-48bf-81d0-0b6b3fc5c7f6",
        "e9a0f58a-90a5-4b31-bf99-7c779dc43de1"
      ],
      "settings": {
        "color_btn": false
      }
    },
    "video_section": {
      "type": "video-section",
      "disabled": true,
      "settings": {
        "video_url": "https:\/\/cdn.shopify.com\/videos\/c\/o\/v\/16067bc82449460bb86c21bc641e27ee.mp4",
        "heading_title": "",
        "section_text": "Welcome to the Happy Camper Collection: A collection of Pouches, Bags, Patches & more inspired by summers spent at the lake, around the campfire & in a bunk filled with your best friends. We've outfitted our go-to silhouettes in a forever-cool denim hue that's perfect for a summer at spent camp & the seasons beyond."
      }
    },
    "shop_categories": {
      "type": "shop-categories",
      "blocks": {
        "1ea5db34-c2bf-401a-8028-7c52230093ba": {
          "type": "slide",
          "disabled": true,
          "settings": {
            "image": "shopify:\/\/shop_images\/Holiday_GiftGuide2_GiftGuide_HP.jpg",
            "slide_label": "Holiday Gift Guide",
            "slide_url": "shopify:\/\/pages\/gift-guide-2022"
          }
        },
        "1effbf5a-044d-4718-b25d-40fea35d2ccb": {
          "type": "slide",
          "settings": {
            "image": "shopify:\/\/shop_images\/0359_Shot_05_0286_V3.jpg",
            "slide_label": "Just In",
            "slide_url": "shopify:\/\/collections\/just-in"
          }
        },
        "116117cb-b058-4927-a32a-c7e3ea7d24e9": {
          "type": "slide",
          "settings": {
            "image": "shopify:\/\/shop_images\/0326_Shot_25_Homepage_Hero_0011_RT_V1_20e0d0d8-5903-4881-bc59-8f821d74cdaf.jpg",
            "slide_label": "All Products",
            "slide_url": "shopify:\/\/collections\/all-products"
          }
        },
        "92150c33-1a44-4f47-836a-be0cdd3c9cbf": {
          "type": "slide",
          "settings": {
            "image": "shopify:\/\/shop_images\/0326_Shot_13_Hand_Model_Totes_Noir_Blanc_0496_RT_V3_6f8d294e-a9a0-4c06-8beb-c86fe253e2d6.jpg",
            "slide_label": "Duffle Bags",
            "slide_url": "shopify:\/\/collections\/duffle-bags"
          }
        },
        "b2d3a81a-7b75-41ea-a816-4f4a9d1b4c91": {
          "type": "slide",
          "settings": {
            "image": "shopify:\/\/shop_images\/0351_Shot_26_0501_RT_V2_3.jpg",
            "slide_label": "Fanny Packs",
            "slide_url": "shopify:\/\/collections\/fanny-packs"
          }
        },
        "6c4e6f8a-d048-4350-852c-9b1d8ebf69d8": {
          "type": "slide",
          "settings": {
            "image": "shopify:\/\/shop_images\/0326_Shot_13_Hand_Model_Totes_Sand_Sapphire_0470_RT_V3_99237945-a04b-4611-8968-f2f797444bed.jpg",
            "slide_label": "Tote Bags",
            "slide_url": "shopify:\/\/collections\/totes"
          }
        },
        "44e73ef0-7909-4bf8-8e0a-9d8c6cd8ef6f": {
          "type": "slide",
          "settings": {
            "image": "shopify:\/\/shop_images\/0326_Shot_01_PDP_Classic_Mini_Pouch_3Up_0014_V3.jpg",
            "slide_label": "Pouches",
            "slide_url": "shopify:\/\/collections\/pouches"
          }
        },
        "f47fb548-3574-4676-9288-0e0a13676b7f": {
          "type": "slide",
          "settings": {
            "image": "shopify:\/\/shop_images\/0326_Shot_05_PDP_Mini_Backpack_Flamingo_Bubblegum_0076_RT_V3.jpg",
            "slide_label": "Backpacks",
            "slide_url": "shopify:\/\/collections\/backpacks"
          }
        },
        "de7f84f1-6bf1-42a0-9acf-3367643e570c": {
          "type": "slide",
          "disabled": true,
          "settings": {
            "image": "shopify:\/\/shop_images\/0346_Shot_08_Nylon_Large_Embroidered_0100_V2_copy_2.jpg",
            "slide_label": "Pre-Customized",
            "slide_url": "https:\/\/www.stoneycloverlane.com\/collections\/homecoming-collection-pre-customized"
          }
        },
        "90a9f37a-51a4-4ace-b842-e568a8d5c345": {
          "type": "slide",
          "settings": {
            "image": "shopify:\/\/shop_images\/Back_to_School_Banners_Mob3-06_1_-_Copy.jpg",
            "slide_label": "Travel Accessories",
            "slide_url": "shopify:\/\/collections\/travel-accessories"
          }
        },
        "b726fa7b-93ec-464e-b942-81e53df0179b": {
          "type": "slide",
          "settings": {
            "image": "shopify:\/\/shop_images\/img_1_2.jpg",
            "slide_label": "Clothing & Accessories",
            "slide_url": "https:\/\/www.stoneycloverlane.com\/collections\/clothing-accessories"
          }
        },
        "6155e93c-467b-43d7-b6d9-fe3337f82b44": {
          "type": "slide",
          "settings": {
            "image": "shopify:\/\/shop_images\/0353_Shot_15_0285_RT_V2.jpg",
            "slide_label": "SCL x Juicy Couture",
            "slide_url": "https:\/\/www.stoneycloverlane.com\/collections\/scl-x-juicy-couture"
          }
        },
        "8f593da9-d256-4e8b-b51c-1996ef1cbc71": {
          "type": "slide",
          "settings": {
            "image": "shopify:\/\/shop_images\/0351_Shot_10_0513_RT_V3.jpg",
            "slide_label": "Destination: Paris",
            "slide_url": "shopify:\/\/collections\/destination-paris"
          }
        },
        "350fa635-e38a-480e-a601-5c9e9ce02ee7": {
          "type": "slide",
          "settings": {
            "image": "shopify:\/\/shop_images\/0346_Shot_01_Large_Group_0060_V1_copy.jpg",
            "slide_label": "The Homecoming Collection",
            "slide_url": "https:\/\/www.stoneycloverlane.com\/collections\/homecoming-collection"
          }
        },
        "c54eb95a-bce1-4c85-bf90-4185e2541716": {
          "type": "slide",
          "settings": {
            "image": "shopify:\/\/shop_images\/0344_Shot_03_0129_Girls_Group_V1.jpg",
            "slide_label": "Back to School",
            "slide_url": "shopify:\/\/collections\/back-to-school-2"
          }
        },
        "152f2c34-c260-4624-a470-07c598a7526b": {
          "type": "slide",
          "settings": {
            "image": "shopify:\/\/shop_images\/0342_Shot_18_Denim_Collection_0007_R_V2.jpg",
            "slide_label": "Happy Camper",
            "slide_url": "shopify:\/\/collections\/happy-camper"
          }
        },
        "34621935-3860-450d-b21c-a1daef3f5ca5": {
          "type": "slide",
          "settings": {
            "image": "shopify:\/\/shop_images\/0351_Shot_25_0531_RT_V3.jpg",
            "slide_label": "Destination: London",
            "slide_url": "shopify:\/\/collections\/destination-london"
          }
        },
        "9f96bc69-375d-4dd4-8bb5-8a98aa035e1d": {
          "type": "slide",
          "disabled": true,
          "settings": {
            "image": "shopify:\/\/shop_images\/0326_Shot_15_Custom_GIF_Mini_Pouches_eea900bf-002e-48dc-88ba-a1161a0d8f38.gif",
            "slide_label": "Patches",
            "slide_url": "shopify:\/\/collections\/all-patches"
          }
        }
      },
      "block_order": [
        "1ea5db34-c2bf-401a-8028-7c52230093ba",
        "1effbf5a-044d-4718-b25d-40fea35d2ccb",
        "116117cb-b058-4927-a32a-c7e3ea7d24e9",
        "92150c33-1a44-4f47-836a-be0cdd3c9cbf",
        "b2d3a81a-7b75-41ea-a816-4f4a9d1b4c91",
        "6c4e6f8a-d048-4350-852c-9b1d8ebf69d8",
        "44e73ef0-7909-4bf8-8e0a-9d8c6cd8ef6f",
        "f47fb548-3574-4676-9288-0e0a13676b7f",
        "de7f84f1-6bf1-42a0-9acf-3367643e570c",
        "90a9f37a-51a4-4ace-b842-e568a8d5c345",
        "b726fa7b-93ec-464e-b942-81e53df0179b",
        "6155e93c-467b-43d7-b6d9-fe3337f82b44",
        "8f593da9-d256-4e8b-b51c-1996ef1cbc71",
        "350fa635-e38a-480e-a601-5c9e9ce02ee7",
        "c54eb95a-bce1-4c85-bf90-4185e2541716",
        "152f2c34-c260-4624-a470-07c598a7526b",
        "34621935-3860-450d-b21c-a1daef3f5ca5",
        "9f96bc69-375d-4dd4-8bb5-8a98aa035e1d"
      ],
      "settings": {
        "title": ""
      }
    },
    "nosto_index": {
      "type": "nosto-index",
      "settings": {}
    },
    "gif_section": {
      "type": "gif-section",
      "settings": {
        "video_url": "https:\/\/cdn.shopify.com\/videos\/c\/o\/v\/aeee9d17f8b84a4eb04bda3ef1b81edd.mp4",
        "button_label_1": "Get Customizing",
        "button_link_1": "https:\/\/www.stoneycloverlane.com\/collections\/customize",
        "heading_title": "Personalize Your Piece",
        "heading_title1": "",
        "section_text": "Create something that's completely your own. Pick from a variety of silhouettes, colors & materials—& then customize."
      }
    },
    "shop_color": {
      "type": "shop-color",
      "blocks": {
        "c1944c53-27a1-4002-a3a3-7d7ccebc581c": {
          "type": "slide",
          "settings": {
            "image": "shopify:\/\/shop_images\/0326_Shot_11_SBC_Flamingo_0011_RT_V1_copy.jpg",
            "image_m": "shopify:\/\/shop_images\/0326_Shot_11_SBC_Flamingo_0011_RT_V1_c08404b9-e8e7-4779-aaaf-fa91cce2ed8d.jpg",
            "slide_color": "#fcbdcf",
            "slide_url": "shopify:\/\/collections\/flamingo"
          }
        },
        "2be871da-5ca3-44d7-a099-951cfd8d1cde": {
          "type": "slide",
          "settings": {
            "image": "shopify:\/\/shop_images\/0326_Shot_11_SBC_Bubblegum_0027_RT_V1-1151x480.jpg",
            "image_m": "shopify:\/\/shop_images\/0326_Shot_11_SBC_Bubblegum_0027_RT_V1.jpg",
            "slide_color": "#fd8fc4",
            "slide_url": "shopify:\/\/collections\/bubblegum"
          }
        },
        "ae20b218-def7-4056-b096-c82e94d7e781": {
          "type": "slide",
          "settings": {
            "image": "shopify:\/\/shop_images\/0326_Shot_11_SBC_Peach_0047_RT_V1-1151x480.jpg",
            "image_m": "shopify:\/\/shop_images\/0326_Shot_11_SBC_Peach_0047_RT_V1.jpg",
            "slide_color": "#feb480",
            "slide_url": "shopify:\/\/collections\/peach"
          }
        },
        "4fed151f-39e1-485d-89da-a0dfbd81aa95": {
          "type": "slide",
          "settings": {
            "image": "shopify:\/\/shop_images\/Banana_ce167500-0610-4245-beea-3c6bf1e52963.jpg",
            "image_m": "shopify:\/\/shop_images\/banana-group1.jpg",
            "slide_color": "#f2f0a1",
            "slide_url": "shopify:\/\/collections\/banana"
          }
        },
        "f30acaec-d761-466f-82f3-edf08c2526a7": {
          "type": "slide",
          "settings": {
            "image": "shopify:\/\/shop_images\/0326_Shot_11_SBC_Lemon_0055_RT_V1-1151x480.jpg",
            "image_m": "shopify:\/\/shop_images\/0326_Shot_11_SBC_Lemon_0055_RT_V1.jpg",
            "slide_color": "#f5db31",
            "slide_url": "shopify:\/\/collections\/lemon"
          }
        },
        "d71d2a20-e091-4450-9b42-4de36decf535": {
          "type": "slide",
          "settings": {
            "image": "shopify:\/\/shop_images\/0326_Shot_11_SBC_Lime_0063_RT_V1-1152x480.jpg",
            "image_m": "shopify:\/\/shop_images\/0326_Shot_11_SBC_Lime_0063_RT_V1.jpg",
            "slide_color": "#e8f767",
            "slide_url": "shopify:\/\/collections\/lime"
          }
        },
        "1764378c-af26-4d2a-a096-f7a559fb508e": {
          "type": "slide",
          "settings": {
            "image": "shopify:\/\/shop_images\/0326_Shot_11_SBC_Avocado_0084_RT_V1-1151x480.jpg",
            "image_m": "shopify:\/\/shop_images\/0326_Shot_11_SBC_Avocado_0084_RT_V1.jpg",
            "slide_color": "#22d870",
            "slide_url": "shopify:\/\/collections\/avocado"
          }
        },
        "11eebf33-37d1-4ad7-bf98-ab206c121f20": {
          "type": "slide",
          "settings": {
            "image": "shopify:\/\/shop_images\/0326_Shot_11_SBC_CottonCandy_0099_RT_V1-1151x480.jpg",
            "image_m": "shopify:\/\/shop_images\/0326_Shot_11_SBC_CottonCandy_0099_RT_V1.jpg",
            "slide_color": "#86d6d1",
            "slide_url": "shopify:\/\/collections\/cotton-candy"
          }
        },
        "fd3b7b57-5f1b-424f-ac11-6a1d6a11dd77": {
          "type": "slide",
          "settings": {
            "image": "shopify:\/\/shop_images\/0326_Shot_12_SBC_Sky_0015_RT_V1_copy.jpg",
            "image_m": "shopify:\/\/shop_images\/0326_Shot_12_SBC_Sky_0015_RT_V1.jpg",
            "slide_color": "#bddbde",
            "slide_url": "shopify:\/\/collections\/sky"
          }
        },
        "5a8a2309-7aa8-48e8-8783-dd2b5508e82a": {
          "type": "slide",
          "settings": {
            "image": "shopify:\/\/shop_images\/0326_Shot_12_SBC_Periwinkle_0020_RT_V1.jpg",
            "image_m": "shopify:\/\/shop_images\/0326_Shot_12_SBC_Periwinkle_0020_RT_V1_8c3ed2b5-c43a-4d0f-b0e0-ef15005addf6.jpg",
            "slide_color": "#8daed7",
            "slide_url": "shopify:\/\/collections\/periwinkle"
          }
        },
        "a423d26a-ef46-4b82-87a4-8db2d0db97bf": {
          "type": "slide",
          "settings": {
            "image": "shopify:\/\/shop_images\/0326_Shot_12_SBC_Lilac_0027_RT_V1.jpg",
            "image_m": "shopify:\/\/shop_images\/0326_Shot_12_SBC_Lilac_0027_RT_V1_525df1ba-df77-4d99-986d-b5940aa46ca2.jpg",
            "slide_color": "#d8c1d6",
            "slide_url": "shopify:\/\/collections\/lilac"
          }
        },
        "419d6985-6575-4f54-8757-e980503b5498": {
          "type": "slide",
          "settings": {
            "image": "shopify:\/\/shop_images\/0326_Shot_12_SBC_Grape_0034_RT_V4_1.jpg",
            "image_m": "shopify:\/\/shop_images\/0326_Shot_12_SBC_Grape_0034_RT_V4.jpg",
            "slide_color": "#f4bbf3",
            "slide_url": "https:\/\/www.stoneycloverlane.com\/collections\/grape"
          }
        },
        "70f05eae-d781-4359-be99-67645ec72df2": {
          "type": "slide",
          "settings": {
            "image": "shopify:\/\/shop_images\/0326_Shot_12_SBC_Blanc_0042_RT_V1-resized.jpg",
            "image_m": "shopify:\/\/shop_images\/0326_Shot_12_SBC_Blanc_0042_RT_V1.jpg",
            "slide_color": "#ecede8",
            "slide_url": "shopify:\/\/collections\/blanc"
          }
        },
        "fd703dd8-d8e3-4729-a6a0-aa9f9422bb29": {
          "type": "slide",
          "settings": {
            "image": "shopify:\/\/shop_images\/0326_Shot_17_SBC_Sand_0093_RT_V1-1151x480.jpg",
            "image_m": "shopify:\/\/shop_images\/0326_Shot_17_SBC_Sand_0093_RT_V1.jpg",
            "slide_color": "#f4dbc3",
            "slide_url": "shopify:\/\/collections\/sand"
          }
        },
        "2dadf39b-0919-4f81-a183-266bb85bf1f8": {
          "type": "slide",
          "settings": {
            "image": "shopify:\/\/shop_images\/0326_Shot_17_SBC_Sapphire_0095_RT_V2-1151x480.jpg",
            "image_m": "shopify:\/\/shop_images\/0326_Shot_17_SBC_Sapphire_0095_RT_V2.jpg",
            "slide_color": "#293144",
            "slide_url": "shopify:\/\/collections\/sapphire-1"
          }
        },
        "1e22a2ad-da39-4196-b6b2-638369655a4a": {
          "type": "slide",
          "settings": {
            "image": "shopify:\/\/shop_images\/0326_Shot_17_SBC_Noir_0115_RT_V2-1151x480.jpg",
            "image_m": "shopify:\/\/shop_images\/0326_Shot_17_SBC_Noir_0115_RT_V2.jpg",
            "slide_color": "#3e3e3e",
            "slide_url": "shopify:\/\/collections\/noir"
          }
        },
        "2c2596a6-cb9d-4d76-8218-0cb58724fb7c": {
          "type": "slide",
          "disabled": true,
          "settings": {
            "image": "shopify:\/\/shop_images\/DESKTOP1_2-100.jpg",
            "image_m": "shopify:\/\/shop_images\/MOBILE1_2-100.jpg",
            "slide_color": "#b62025",
            "slide_url": "shopify:\/\/collections\/ruby"
          }
        }
      },
      "block_order": [
        "c1944c53-27a1-4002-a3a3-7d7ccebc581c",
        "2be871da-5ca3-44d7-a099-951cfd8d1cde",
        "ae20b218-def7-4056-b096-c82e94d7e781",
        "4fed151f-39e1-485d-89da-a0dfbd81aa95",
        "f30acaec-d761-466f-82f3-edf08c2526a7",
        "d71d2a20-e091-4450-9b42-4de36decf535",
        "1764378c-af26-4d2a-a096-f7a559fb508e",
        "11eebf33-37d1-4ad7-bf98-ab206c121f20",
        "fd3b7b57-5f1b-424f-ac11-6a1d6a11dd77",
        "5a8a2309-7aa8-48e8-8783-dd2b5508e82a",
        "a423d26a-ef46-4b82-87a4-8db2d0db97bf",
        "419d6985-6575-4f54-8757-e980503b5498",
        "70f05eae-d781-4359-be99-67645ec72df2",
        "fd703dd8-d8e3-4729-a6a0-aa9f9422bb29",
        "2dadf39b-0919-4f81-a183-266bb85bf1f8",
        "1e22a2ad-da39-4196-b6b2-638369655a4a",
        "2c2596a6-cb9d-4d76-8218-0cb58724fb7c"
      ],
      "settings": {
        "title": "Find Your Color",
        "slide_label": "SHOP NOW",
        "subtitle": "With 15 Classic Core colors & unique color creations every season, there's a hue that's right for you."
      }
    },
    "best_seller": {
      "type": "best-seller",
      "blocks": {
        "f49c40c3-6427-43b8-bfae-ec32491112fd": {
          "type": "slide",
          "settings": {
            "image": "shopify:\/\/shop_images\/SCLXJUICY02741.jpg",
            "slide_category": "Collaboration",
            "slide_label": "SCL x Juicy Couture",
            "slide_text": "Embrace the best of Y2K nostalgia with Stoney Clover Lane x Juicy Couture: A collection of pre-customized & customizable pieces inspired by early 2000’s pop culture & fashion.",
            "slide_url": "shopify:\/\/collections\/scl-x-juicy-couture"
          }
        },
        "a29f9413-6801-406a-803c-7e63e64530b7": {
          "type": "slide",
          "settings": {
            "image": "shopify:\/\/shop_images\/SDG_SCL_Sept2022_0754_3534SG_A_ADOBERGB.jpg",
            "slide_category": "Collaboration",
            "slide_label": "Salood",
            "slide_text": "Salood brings young cancer warriors and businesses together to create customized products sold to benefit families affected by pediatric cancer. Through Salood, we were able to meet Ava—who helped us design this amazing collection.  Ava is a teenager in remission from Ewing's sarcoma. Her style, talent & huge heart were integral in making the final products of this collection.  This collection is created with a new shade of blue, embroidered detail & unique hardware, we will be donating 100% of net proceeds from this capsule collection to Salood in support of their work providing assistance to families impacted by pediatric cancer.",
            "slide_url": "shopify:\/\/collections\/salood"
          }
        },
        "b90a0686-a5c2-4ed0-a32c-89e4453aa169": {
          "type": "slide",
          "settings": {
            "image": "shopify:\/\/shop_images\/SDG_SCL_Sept2022_0417_3534SG_A_ADOBERGB_d1bc0072-331f-4ea8-b25a-29beaa0035c1.jpg",
            "slide_category": "Collaboration",
            "slide_label": "Mickey & Friends x SCL",
            "slide_text": "Oh, boy! Celebrate the Mickey & Friends Collection, a Disney x Stoney Clover Lane collection of classic-cool prints, pouches, patches & more inspired by everyone's favorite friend group.",
            "slide_url": "shopify:\/\/collections\/mickey-and-friends"
          }
        },
        "026022e2-a0e2-4fe6-ad18-8b3403d58290": {
          "type": "slide",
          "settings": {
            "image": "shopify:\/\/shop_images\/SCL22_StarWars_Lifetstyle_Shot23_071_1.jpg",
            "slide_category": "Collaboration",
            "slide_label": "STAR WARS™",
            "slide_text": "May the Force be with you! Make the jump to lightspeed with our collection of prints, Patches & more inspired by your favorite STAR WARS characters.",
            "slide_url": "shopify:\/\/collections\/star-wars"
          }
        },
        "d7259044-8f6c-4917-bbf7-8decfaec1c30": {
          "type": "slide",
          "settings": {
            "image": "shopify:\/\/shop_images\/4Q7A2342.jpg",
            "slide_category": "Collaboration",
            "slide_label": "Disney Princess x SCL",
            "slide_text": "Prepare to be enchanted! Step into the world of Stoney Clover Lane and Disney with our Disney Princess collaboration. The Small Pouch is the perfect size for keeping your makeup, cords, and headphones safe when you're on the go. Customize to make it uniquely your own, or keep as is for a simple look.",
            "slide_url": "shopify:\/\/collections\/disney-princess"
          }
        }
      },
      "block_order": [
        "f49c40c3-6427-43b8-bfae-ec32491112fd",
        "a29f9413-6801-406a-803c-7e63e64530b7",
        "b90a0686-a5c2-4ed0-a32c-89e4453aa169",
        "026022e2-a0e2-4fe6-ad18-8b3403d58290",
        "d7259044-8f6c-4917-bbf7-8decfaec1c30"
      ],
      "settings": {
        "slider_position": "left"
      }
    },
    "tabs_section": {
      "type": "tabs-section",
      "disabled": true,
      "blocks": {
        "6b059ae4-5b36-498d-a725-c4f3444911b0": {
          "type": "slide",
          "settings": {
            "image": "shopify:\/\/shop_images\/img_T46.png",
            "slide_label": "ready to ship",
            "slide_url": "shopify:\/\/products\/mickey-mouse-rhinestone-pearl-rainbow-bag-charm"
          }
        },
        "87abd54e-d980-470e-9627-5987bd261410": {
          "type": "slide",
          "disabled": true,
          "settings": {
            "image": "shopify:\/\/shop_images\/img_8.png",
            "slide_label": "ready to ship",
            "slide_url": "https:\/\/www.stoneycloverlane.com\/products\/heart-bag-charm-2"
          }
        },
        "83c03427-d6f4-4c3b-8ce1-96c21b64ee6e": {
          "type": "slide",
          "settings": {
            "image": "shopify:\/\/shop_images\/Untitled_design_14.png",
            "slide_label": "ready to ship",
            "slide_url": "shopify:\/\/products\/travel-case"
          }
        },
        "386971e4-c444-4afa-adc1-fda79271faf2": {
          "type": "slide",
          "settings": {
            "image": "shopify:\/\/shop_images\/img_7_1_9af96e06-d36f-47d5-b730-0f58e66ba169.png",
            "slide_label": "ready to ship",
            "slide_url": "shopify:\/\/products\/jumbo-scrunchie"
          }
        },
        "414444eb-2955-42a7-a639-a28789366e1f": {
          "type": "slide",
          "disabled": true,
          "settings": {
            "image": "shopify:\/\/shop_images\/SCL_StuffLargePouch_Camel_1_caf87700-2985-4ca8-96ed-3f9923de9cf3.png",
            "slide_label": "ready to ship",
            "slide_url": "shopify:\/\/products\/stuff-embroidered-large-pouch"
          }
        },
        "d47c5a38-f448-4680-9084-35926f9c039d": {
          "type": "slide",
          "settings": {
            "image": "shopify:\/\/shop_images\/img_33-rev2_28e1b437-3740-46dc-85bd-babc75a9230d.png",
            "slide_label": "ready to ship",
            "slide_url": "shopify:\/\/products\/pink-houndstooth-scrunch-handle-bag"
          }
        },
        "a6ff5fd7-51eb-441b-a368-54e89f0d14ce": {
          "type": "slide",
          "settings": {
            "image": "shopify:\/\/shop_images\/img_101.png",
            "slide_label": "ready to ship",
            "slide_url": "shopify:\/\/products\/bow-brooch"
          }
        },
        "528579f4-5554-4e0d-b976-5662ad78bd9e": {
          "type": "slide",
          "disabled": true,
          "settings": {
            "image": "shopify:\/\/shop_images\/img_27_2.png",
            "slide_label": "ready to ship",
            "slide_url": "shopify:\/\/products\/1-25-headband"
          }
        },
        "63298451-f09e-449e-ba72-9917c4352ad6": {
          "type": "slide",
          "settings": {
            "image": "shopify:\/\/shop_images\/img_10_3.png",
            "slide_label": "ready to ship",
            "slide_url": "shopify:\/\/products\/chocolate-22-round-handle-bag"
          }
        },
        "5948662c-301b-4c73-9885-ef50b8277a97": {
          "type": "slide",
          "settings": {
            "image": "shopify:\/\/shop_images\/SCL_ClassicBackpack_Camel_1_1_ff649dce-070e-405a-a921-03d55e79462c.png",
            "slide_label": "back in stock",
            "slide_url": "shopify:\/\/products\/camel-22-nylon-classic-backpack"
          }
        },
        "0f4543bb-bbb2-41ed-9bf7-1db904c949de": {
          "type": "slide",
          "settings": {
            "image": "shopify:\/\/shop_images\/SCL_GlamSmallPouch_Mauve_2_21dde4d3-e57e-4d3f-b51e-07fd254d4bad.png",
            "slide_label": "back in stock",
            "slide_url": "shopify:\/\/products\/glam-embroidered-small-pouch"
          }
        },
        "d6149408-fd4d-4936-9c8e-c37362717d85": {
          "type": "slide",
          "settings": {
            "image": "shopify:\/\/shop_images\/Emerald_1.png",
            "slide_label": "back in stock",
            "slide_url": "shopify:\/\/products\/homecoming-keychain-wallet"
          }
        },
        "b17819b9-669f-47dd-88c4-f53c907ad8a7": {
          "type": "slide",
          "settings": {
            "image": "shopify:\/\/shop_images\/SCL_ClearSmallPouch_Chocolate_1_62be800c-3d4d-454c-8097-482174b32870.png",
            "slide_label": "back in stock",
            "slide_url": "shopify:\/\/products\/mauve-22-clear-small-pouch"
          }
        },
        "551b83de-af85-4960-93a7-157ba9425850": {
          "type": "slide",
          "settings": {
            "image": "shopify:\/\/shop_images\/Collage-rev2-rev3_3.png",
            "slide_label": "back in stock",
            "slide_url": "shopify:\/\/products\/homecoming-classic-scrunchie"
          }
        },
        "728e38ac-dc23-429c-96e0-04c59d7ee2ae": {
          "type": "slide",
          "settings": {
            "image": "shopify:\/\/shop_images\/SCL_SkinSmallPouch_Chocolate_1.png",
            "slide_label": "back in stock",
            "slide_url": "shopify:\/\/products\/skin-embroidered-small-pouch"
          }
        }
      },
      "block_order": [
        "6b059ae4-5b36-498d-a725-c4f3444911b0",
        "87abd54e-d980-470e-9627-5987bd261410",
        "83c03427-d6f4-4c3b-8ce1-96c21b64ee6e",
        "386971e4-c444-4afa-adc1-fda79271faf2",
        "414444eb-2955-42a7-a639-a28789366e1f",
        "d47c5a38-f448-4680-9084-35926f9c039d",
        "a6ff5fd7-51eb-441b-a368-54e89f0d14ce",
        "528579f4-5554-4e0d-b976-5662ad78bd9e",
        "63298451-f09e-449e-ba72-9917c4352ad6",
        "5948662c-301b-4c73-9885-ef50b8277a97",
        "0f4543bb-bbb2-41ed-9bf7-1db904c949de",
        "d6149408-fd4d-4936-9c8e-c37362717d85",
        "b17819b9-669f-47dd-88c4-f53c907ad8a7",
        "551b83de-af85-4960-93a7-157ba9425850",
        "728e38ac-dc23-429c-96e0-04c59d7ee2ae"
      ],
      "settings": {
        "title": "Shop by Style",
        "tabs": "ready to ship,back in stock"
      }
    },
    "text_image_section": {
      "type": "text-image-section",
      "settings": {
        "image_l": "shopify:\/\/shop_images\/Content_Right.png",
        "title_l": "Meet Our Founders",
        "subtext_l": "Sisters Kendall & Libby Glazer have a passion for living life colorfully. Together they've created an experience-driven travel & lifestyle accessories brand that makes organizing anything but boring.",
        "slide_label_l": "Learn More",
        "slide_url_l": "https:\/\/www.stoneycloverlane.com\/pages\/about-us",
        "image_r": "shopify:\/\/shop_images\/210719_Stoney_Clover_Magazine_Shot2_154_V1.png",
        "title_r": "Visit Our Stores",
        "subtext_r": "Completely curated for & inspired by the cities where they are based, our 6 retail locations are a sought-after destination within their cities. Come by for exclusive events, on-site customization & own special-edition patches.",
        "slide_label_r": "Visit Us",
        "slide_url_r": "https:\/\/www.stoneycloverlane.com\/pages\/locations"
      }
    },
    "1646856997b35326a5": {
      "type": "instagram-slider",
      "settings": {
        "title": "Find Us On Instagram",
        "instagram_widget": true,
        "instagram_link": "https:\/\/www.instagram.com\/stoneyclover\/?hl=en"
      }
    }
  },
  "order": [
    "1645831054b15f36d1",
    "1642074178cac1c8c2",
    "video_section",
    "shop_categories",
    "nosto_index",
    "gif_section",
    "shop_color",
    "best_seller",
    "tabs_section",
    "text_image_section",
    "1646856997b35326a5"
  ]
}