{
  "sections": {
    "main": {
      "type": "seasonal-collections",
      "blocks": {
        "fd4efe01-8114-421f-bb3a-acd376101d69": {
          "type": "collaboration-item",
          "settings": {
            "image": "shopify:\/\/shop_images\/0326_Shot_19_Category__Backpack_Three_Pouches_0020_RT_V1_c842b8e7-6c8c-45e6-ae31-2f370943dacf.jpg",
            "link": "2019",
            "custom_title": ""
          }
        },
        "83c4b350-0dee-4bfd-bfa4-4b73c1ce54f0": {
          "type": "collaboration-item",
          "settings": {
            "image": "shopify:\/\/shop_images\/0359_Shot_27_0021_V2.jpg",
            "link": "libbys-birthday-collection",
            "custom_title": "Libby's Birthday Collection"
          }
        },
        "7864e563-cca9-4fdc-aec4-e16070e10415": {
          "type": "collaboration-item",
          "settings": {
            "image": "shopify:\/\/shop_images\/0351_Shot_25_0531_RT_V3.jpg",
            "link": "destination-london",
            "custom_title": "Destination: London"
          }
        },
        "5009b4e7-98b2-476e-a856-ad818d265bb8": {
          "type": "collaboration-item",
          "settings": {
            "image": "shopify:\/\/shop_images\/0351_Shot_10_0513_RT_V3.jpg",
            "link": "destination-paris",
            "custom_title": "Destination: Paris"
          }
        },
        "fc50fb04-c8d5-4174-96ab-6453f36d06c0": {
          "type": "collaboration-item",
          "settings": {
            "image": "shopify:\/\/shop_images\/0346_Shot_01_Large_Group_0060_V1_copy.jpg",
            "link": "homecoming-collection",
            "custom_title": "Homecoming"
          }
        },
        "c86080c8-321c-4081-a158-9c109cf1e6e5": {
          "type": "collaboration-item",
          "settings": {
            "image": "shopify:\/\/shop_images\/0344_Shot_03_0129_Girls_Group_V1.jpg",
            "link": "back-to-school-2",
            "custom_title": "Back to School"
          }
        },
        "d6cb4e3e-c9fb-4a46-a8a5-e3501711065c": {
          "type": "collaboration-item",
          "settings": {
            "image": "shopify:\/\/shop_images\/0342_Shot_18_Denim_Collection_0007_R_V2.jpg",
            "link": "happy-camper",
            "custom_title": "Happy Camper"
          }
        },
        "089d5523-af62-4982-bb28-313f741378c7": {
          "type": "collaboration-item",
          "settings": {
            "image": "shopify:\/\/shop_images\/0326_Shot_14_SBC_Tie_Dye_0008_RT_V3_62c5cdcd-a05c-4da8-97ec-ee409f0d1c7b.jpg",
            "link": "tie-dye-collection",
            "custom_title": "Tie Dye"
          }
        },
        "f61f2b08-b24a-44b5-ab78-559ebf46bb6e": {
          "type": "collaboration-item",
          "settings": {
            "image": "shopify:\/\/shop_images\/0326_Shot_14_SBC_Camo_0015_RT_V3_33302a3c-ba0f-416f-a34c-613dd1003338.jpg",
            "link": "camo",
            "custom_title": ""
          }
        }
      },
      "block_order": [
        "fd4efe01-8114-421f-bb3a-acd376101d69",
        "83c4b350-0dee-4bfd-bfa4-4b73c1ce54f0",
        "7864e563-cca9-4fdc-aec4-e16070e10415",
        "5009b4e7-98b2-476e-a856-ad818d265bb8",
        "fc50fb04-c8d5-4174-96ab-6453f36d06c0",
        "c86080c8-321c-4081-a158-9c109cf1e6e5",
        "d6cb4e3e-c9fb-4a46-a8a5-e3501711065c",
        "089d5523-af62-4982-bb28-313f741378c7",
        "f61f2b08-b24a-44b5-ab78-559ebf46bb6e"
      ],
      "settings": {
        "number_columns": "columns-3x3",
        "title": ""
      }
    }
  },
  "order": [
    "main"
  ]
}