{
  "sections": {
    "16430378289989753b": {
      "type": "location-hero",
      "blocks": {
        "b6a92589-ef7b-4063-8c99-61cd48b73a9b": {
          "type": "slide",
          "settings": {
            "image": "shopify:\/\/shop_images\/211011-Stoney-Clover-Nashville2129Edit3.png"
          }
        },
        "4c9d8a77-ad49-4cd0-95b6-88cc79012b59": {
          "type": "slide",
          "settings": {
            "image": "shopify:\/\/shop_images\/211011-Stoney-Clover-Nashville0045Edit3.0-928x700.jpg"
          }
        },
        "ed275fd5-3b16-4615-a2b9-6ba8def85271": {
          "type": "slide",
          "settings": {
            "image": "shopify:\/\/shop_images\/211011-Stoney-Clover-Nashville4148Edit2.0-928x700.jpg"
          }
        },
        "4af5ea9d-fc61-4a49-bc09-8a49048c60db": {
          "type": "slide",
          "disabled": true,
          "settings": {}
        }
      },
      "block_order": [
        "b6a92589-ef7b-4063-8c99-61cd48b73a9b",
        "4c9d8a77-ad49-4cd0-95b6-88cc79012b59",
        "ed275fd5-3b16-4615-a2b9-6ba8def85271",
        "4af5ea9d-fc61-4a49-bc09-8a49048c60db"
      ],
      "settings": {
        "title": "Nashville",
        "description": "We felt like the Music City needed a little more color, so we headed down to south to give y’all the Stoney Clover Lane treatment. Perfectly located in the always-buzzing 12 South neighborhood, our Nashville store shows off some of the best of the city with a performer-ready stage (that often features local talent) & a custom mural, created by a local artist.",
        "breadcrumbs_link_label": "< Stores",
        "breadcrumbs_link": "shopify:\/\/pages\/locations",
        "loc_address": "2707 12th Avenue South<br>Nashville,TN 37204",
        "loc_address_link_label": "Directions",
        "loc_address_link": "https:\/\/goo.gl\/maps\/Kj9WuZU1kE9CBWCQ7",
        "hours": "Monday-Thursday \/ 11AM-6PM,\nFriday-Saturday \/ 10AM-6PM,\nSunday \/  11AM-5PM,",
        "loc_phone_link": "(615)486-6900",
        "loc_contact_link": "shopify:\/\/pages\/contact"
      }
    },
    "1647529134569d932c": {
      "type": "email-location-form",
      "disabled": true,
      "settings": {
        "image": "shopify:\/\/shop_images\/single_product.png",
        "klaviyo_form": "<div class=\"klaviyo-form-XY4ztU\"><\/div>"
      }
    },
    "1643035951a6ed1830": {
      "type": "faq-location-detail",
      "blocks": {
        "cd9c3c9e-c465-4c35-a683-0293f87c8b3f": {
          "type": "slide",
          "settings": {
            "fq_title": "What is your return policy?",
            "fq_answer": "We accept returns for eligible items 7 days after order delivery.   <br><br> Returns must be unused & in their original condition, with tags in-tact.   <br><br> Custom designs, gift cards, hair accessories, silk eye masks, clothing, sleepwear, keychains, face masks, blankets, tie dye kits & embroidered items are final sale.   <br><br> We do not accept returns on international orders.   <br><br> Online purchases are unable to be returned in-store.   <br><br> We reserve the right to deny any return if the merchandise does not comply with our provided returns policy."
          }
        },
        "2bfd582a-c366-4973-9e08-072ded3af2c0": {
          "type": "slide",
          "settings": {
            "fq_title": "What is the process to submit a return?",
            "fq_answer": "To submit a return, please email support@stoneycloverlane.com \twith your order number & the items to be returned. Our team will then respond to you with a pre-paid shipping label. Items must be shipped back within 7 days of initial correspondence.    <br><br>Once we have received your package, your refund will be processed within 7 business days. Please note that your banking institution may require additional days to process and reflect in your account.   <br><br> Original shipping charges are non-refundable & we charge a $10 flat-rate return processing fee. This will be deducted from your refund amount. The remaining refund will be credited to your original payment method.   <br><br> We reserve the right to deny any return if the merchandise does not comply with our provided returns policy."
          }
        },
        "2c298de0-afa3-4f1b-9f68-0c1326f325b4": {
          "type": "slide",
          "settings": {
            "fq_title": "What items are final sale?",
            "fq_answer": "The following items are considered final sale & cannot be submitted for return:   \t<br><br> Any Customized Design   \t<br><br> Gift Cards   \t<br><br> Silk Eye Masks   \t<br><br> Blankets\t   \t<br><br> All Hair Accessories   \t<br><br> Clothing   \t<br><br> Swimwear   \t<br><br> Embroidered Pieces   \t<br><br> Tie Dye Kits   <br><br> We reserve the right to deny any return if the merchandise does not comply with our provided \treturns policy."
          }
        },
        "d73a9dd7-454a-4a58-ac7a-4adc0123146b": {
          "type": "slide",
          "settings": {
            "fq_title": "How do I contact customer service?",
            "fq_answer": "For online inquiries, please contact support@stoneycloverlane.com.     <br><br> If your inquiry pertains to an existing order, please include your order number in your email. Our customer service response hours are Monday–Friday from 9am–6pm ET. All requests will be answered within 48–72 hours of receiving your communication, with the exception of weekends & Holidays.      <br><br> For inquiries regarding our stores or in-store purchases, please contact the respective Stoney Clover Lane retail location:   <br><br> East Hampton: eh@stoneycloverlane.com  <br><br> Nashville: nashville@stoneycloverlane.com  <br><br> New Orleans: nola@stoneycloverlane.com  <br><br> New York City (West Village): nycorders@stoneycloverlane.com  <br><br> Newport Beach: nb@stoneycloverlane.com  <br><br> Palm Beach: pb@stoneycloverlane.com"
          }
        },
        "da284687-520b-4a88-ae72-b5b7b4be8e6e": {
          "type": "slide",
          "settings": {
            "fq_title": "How does customization work?",
            "fq_answer": "Almost every Stoney Clover Lane piece can be customized with our signature Patches, available in all different letter & icon styles.    <br><br> If shopping online: Using our online Customizer tool, you’ll design exactly how you want your Patches arranged. You can finalize your design with our “Tidy Patches” section & also leave a note to specify any details you would like our team to know.    <br><br> Once your order is placed, a team of specialists gets right to work preparing to sew the design you’ve created & laying out your dream piece. We go through a round of quality assurance & review the design you’ve created & to confirm that we can complete it to your specifications. & Then our team of sewers gets to work! When designed pieces go into production there may be slight variation between the digital image & the actual item. Once sewn, your piece is again quality checked to confirm it was completed to our high standards & then it is sent to you.   <br><br> Because of this extensive process, all customized designs are final sale.      <br><br> If shopping in stores: We have a talented team of sewers at each of our store locations that are able to customize your dream piece onsite. Turnaround times vary by location, by day & by order volume. Typically, customization time ranges from a few hours to a few days. Feel free to call ahead of your store visit to find out the current wait times."
          }
        },
        "527ac925-61df-45bc-a156-9807bbd02009": {
          "type": "slide",
          "settings": {
            "fq_title": "Can I change or cancel my custom order?",
            "fq_answer": "<br><br> Once a custom order has been placed (in store or online), we are unable to modify or cancel the order. Our order fulfilment team is immediately alerted to start preparing your items & get the customization process underway. If you have more questions about customization, please visit How does customization work?   <br><br> There are no exceptions to this policy.    <br><br> Please note Stoney Clover Lane reserves the right to cancel any order that violates any intellectual property or trademark laws including company names &\/or profanity."
          }
        },
        "72c4bb3f-668c-41f5-bffd-4212a2c4e726": {
          "type": "slide",
          "settings": {
            "fq_title": "Can I change or cancel my custom order?",
            "fq_answer": "<br><br> Once a custom order has been placed (in store or online), we are unable to modify or cancel the order. Our order fulfilment team is immediately alerted to start preparing your items & get the customization process underway. If you have more questions about customization, please visit How does customization work?   <br><br> There are no exceptions to this policy.    <br><br> Please note Stoney Clover Lane reserves the right to cancel any order that violates any intellectual property or trademark laws including company names &\/or profanity."
          }
        },
        "388227d1-9f7a-495a-b4c5-800873807da5": {
          "type": "slide",
          "settings": {
            "fq_title": "Why was my order cancelled?",
            "fq_answer": "Orders are cancelled—or items from an order are cancelled—for a number of reasons, most typically because an item that you ordered is out of stock by the time the order was processed.    <br><br> For more details as to why your order was cancelled, please email support@stoneycloverlane.com to inquire."
          }
        },
        "613e7635-49f7-401b-95ad-a9b2606de8c0": {
          "type": "slide",
          "settings": {
            "fq_title": "Where is my gift card?",
            "fq_answer": "Gift cards purchased online will be sent via email within 2 hours of your purchase. Support@stoneycloverlane.com will send you the gift card number & gift card amount, which can then be forwarded to the gift card recipient.   <br><br>Please note, gift card orders are not able to be refunded."
          }
        },
        "4aec8187-afb9-4115-bc40-b812622c4c4c": {
          "type": "slide",
          "settings": {
            "fq_title": "Are there restrictions for discounts?",
            "fq_answer": "Collaborations, third-party products, gift cards & customization fees are excluded from all codes & promotions.    <br><br> Discount codes, sale prices & promotions cannot be applied to previous orders.    <br><br> Only one discount code can be applied per order.    <br><br> Online discounts & online promotion codes cannot be applied to in-store purchases."
          }
        },
        "f9c276f3-87ef-471f-a067-069cd2f86ffb": {
          "type": "slide",
          "settings": {
            "fq_title": "What payment methods are accepted on your website?",
            "fq_answer": "We accept all major credit cards & debit cards. All prices on our site are listed in USD."
          }
        },
        "2eea131c-d09c-428d-b86c-ca233f737fe4": {
          "type": "slide",
          "settings": {
            "fq_title": "Does sales tax apply to my order?",
            "fq_answer": "Local sales tax will be applied to orders being shipped to the following states: Alabama, Arizona, Arkansas, California, Colorado, Connecticut, Florida, Georgia, Hawaii, Illinois, Indiana, Kansas, Kentucky, Louisiana, Maryland, Massachusetts, Michigan, Minnesota, Mississippi, Nebraska, New Jersey, New York, North Carolina, Nevada, Ohio, Oklahoma, Pennsylvania, South Carolina, Texas, Tennessee, Utah, Virginia, Washington D.C., Washington, West Virginia & Wisconsin"
          }
        },
        "ef0c3c50-5362-4cb3-9b23-95a367f0e6fd": {
          "type": "slide",
          "settings": {
            "fq_title": "When will my credit card be billed for my order & does this apply to pre-order items?",
            "fq_answer": "All purchases, including pre-orders, will be charged when the order is placed. Purchases may take 3–5 business days to appear on your financial  statement."
          }
        },
        "cb5baf1c-9aa3-4684-a491-5f5384b6cc5f": {
          "type": "slide",
          "settings": {
            "fq_title": "I see a pending payment on my credit card but have not received a confirmation email. What should I do now?",
            "fq_answer": "All of our orders are accompanied by a confirmation email. If you did not receive one, your order was not processed & you were not charged. You may see a pending hold charge on your statement, but this will fall off in 5–7 business days. If you are still seeing a hold after the 7 business day window, please contact us at support@stoneycloverlane.com."
          }
        },
        "fd5d4b81-7f8f-472d-9b9f-0c407d3add85": {
          "type": "slide",
          "settings": {
            "fq_title": "When will my order ship?",
            "fq_answer": "Online orders follow the turnaround cadence provided in your order’s email confirmation. We also update our website with adjusted turnaround timelines as needed.    <br><br>Orders ship Monday—Friday, excluding Holidays. All orders placed Monday–Friday will be processed the following business day. All orders placed Saturday or Sunday will be processed on Monday.    <br><br> US orders are shipped using UPS or FedEx.     <br><br> International orders are shipped using DHL or UPS.   <br><br> Stoney Clover Lane is not responsible for shipping carrier delays. We do not refund shipping for carrier delays."
          }
        },
        "e627edcc-402c-4a9e-a440-fafcf5d0434f": {
          "type": "slide",
          "settings": {
            "fq_title": "How long will it take for my order to arrive after it has shipped?",
            "fq_answer": "For US orders, it may take up to 10 business days to arrive once they’ve shipped from our fulfillment center.    <br><br> For International orders, customs & clearance procedures can delay package delivery by up to 4 weeks.   <br><br> Stoney Clover Lane is not responsible for shipping carrier delays. We do not refund shipping for carrier delays."
          }
        },
        "27ec20de-7b84-4fe8-96e0-d53e37f70e09": {
          "type": "slide",
          "settings": {
            "fq_title": "Do you ship internationally?",
            "fq_answer": "Absolutely! We want you to get your Stoney Clover Lane fix wherever you are.  Stoney Clover Lane is not responsible for the cost of duties, taxes & other fees placed on international shipments. We are unable to control nor modify these costs. The shipping carrier will reach out to you directly with your charges after your package has been shipped. Taxes & duties vary based on the destination of your package.   <br><br> Customs & clearance procedures can delay package delivery by up to 4 weeks.    <br><br> Any refusal of an international shipment on a non-custom item will result in a $20 re-stocking fee, shipping will not be refunded.    <br><br> In the case of a missing package, we do not refund shipping charges.   <br><br> All international orders are final sale."
          }
        },
        "9e58b526-5556-4893-95d4-cf7e876385d2": {
          "type": "slide",
          "disabled": true,
          "settings": {
            "fq_title": "",
            "fq_answer": ""
          }
        }
      },
      "block_order": [
        "cd9c3c9e-c465-4c35-a683-0293f87c8b3f",
        "2bfd582a-c366-4973-9e08-072ded3af2c0",
        "2c298de0-afa3-4f1b-9f68-0c1326f325b4",
        "d73a9dd7-454a-4a58-ac7a-4adc0123146b",
        "da284687-520b-4a88-ae72-b5b7b4be8e6e",
        "527ac925-61df-45bc-a156-9807bbd02009",
        "72c4bb3f-668c-41f5-bffd-4212a2c4e726",
        "388227d1-9f7a-495a-b4c5-800873807da5",
        "613e7635-49f7-401b-95ad-a9b2606de8c0",
        "4aec8187-afb9-4115-bc40-b812622c4c4c",
        "f9c276f3-87ef-471f-a067-069cd2f86ffb",
        "2eea131c-d09c-428d-b86c-ca233f737fe4",
        "ef0c3c50-5362-4cb3-9b23-95a367f0e6fd",
        "cb5baf1c-9aa3-4684-a491-5f5384b6cc5f",
        "fd5d4b81-7f8f-472d-9b9f-0c407d3add85",
        "e627edcc-402c-4a9e-a440-fafcf5d0434f",
        "27ec20de-7b84-4fe8-96e0-d53e37f70e09",
        "9e58b526-5556-4893-95d4-cf7e876385d2"
      ],
      "settings": {
        "title": "FAQ"
      }
    },
    "16439907342b2ef626": {
      "type": "events",
      "disabled": true,
      "blocks": {
        "d1806f0d-a92c-43e2-a3ec-4aae236e873b": {
          "type": "event",
          "settings": {
            "title": "Back to School Event",
            "location": "Newport Beach",
            "data": "Saturday, September 2nd 2021\n11AM - 1PM",
            "url": "shopify:\/\/pages\/a-letter-from-our-founders"
          }
        },
        "f097ce5d-aec6-472c-981e-af07184e28ab": {
          "type": "event",
          "settings": {
            "title": "Back to School Event",
            "location": "Newport Beach",
            "data": "Saturday, September 2nd 2021\n11AM - 1PM",
            "url": "shopify:\/\/products\/amsterdam-sticker-patch"
          }
        },
        "1d2005cb-6823-4d7a-9f18-794df11d74f6": {
          "type": "event",
          "settings": {
            "title": "SCLN Book Club Event",
            "location": "Newport Beach",
            "data": "Saturday, September 2nd 2021\n11AM - 1PM",
            "url": "shopify:\/\/products\/adopt-dont-shop-sticker-patch"
          }
        },
        "b987017f-7e23-4d7c-87a4-851c9b349266": {
          "type": "event",
          "settings": {
            "title": "SCLN Book Club Event",
            "location": "Newport Beach",
            "data": "Saturday, September 2nd 2021\n11AM - 1PM",
            "url": "shopify:\/\/products\/american-royals"
          }
        }
      },
      "block_order": [
        "d1806f0d-a92c-43e2-a3ec-4aae236e873b",
        "f097ce5d-aec6-472c-981e-af07184e28ab",
        "1d2005cb-6823-4d7a-9f18-794df11d74f6",
        "b987017f-7e23-4d7c-87a4-851c9b349266"
      ],
      "settings": {
        "title": "Upcoming Events in Palm Beach"
      }
    }
  },
  "order": [
    "16430378289989753b",
    "1647529134569d932c",
    "1643035951a6ed1830",
    "16439907342b2ef626"
  ]
}