{
  "sections": {
    "main": {
      "type": "hero-text-image",
      "settings": {
        "image": "shopify:\/\/shop_images\/Content_Right.png",
        "mobile_image": "shopify:\/\/shop_images\/Content_Right.png",
        "image_position": "right",
        "title": "Meet the Founders —Kendall & Libby",
        "description": "<p>Founded by sisters, Stoney Clover Lane reimagines organization through a line of travel accessories designed to spark self-expression. As frequent fliers that love to keep things lighthearted and labeled, Kendall and Libby expanded the brand to include vibrant lifestyle and travel accessories to help customers stay organized on the go.<\/p>"
      }
    },
    "164624054545873d81": {
      "type": "con",
      "blocks": {
        "981a052e-dd1d-4776-9a58-4fc43a0787ea": {
          "type": "slide",
          "settings": {
            "image": "shopify:\/\/shop_images\/newimg-3-_1.jpg",
            "badge": "",
            "badge_color": "badge-1",
            "slide_label": "Kendall's Picks",
            "slide_url": "https:\/\/www.stoneycloverlane.com\/products\/dylan-bag?variant=39813693046864"
          }
        },
        "dd667108-d71b-43c9-ba51-6579d0795604": {
          "type": "slide",
          "settings": {
            "image": "shopify:\/\/shop_images\/img-30_b8de21c9-a8e9-43c5-80dd-cd65670b2b49.jpg",
            "badge": "",
            "badge_color": "badge-1",
            "slide_label": "Kendall's Picks",
            "slide_url": "https:\/\/www.stoneycloverlane.com\/products\/classic-large-pouch?variant=33184850051152"
          }
        },
        "8bb63a74-db0d-46cd-9ea4-60a123bc9178": {
          "type": "slide",
          "settings": {
            "image": "shopify:\/\/shop_images\/SCL22_HappyCamper_Ecomm_img-9_28cdd022-2a60-4916-a80c-75462e736f73.jpg",
            "badge": "",
            "badge_color": "badge-1",
            "slide_label": "Kendall's Picks",
            "slide_url": "https:\/\/www.stoneycloverlane.com\/collections\/bags-pouches\/products\/denim-jumbo-fanny-pack"
          }
        },
        "66e4b9a4-7b68-491d-a521-7c26d11c1b64": {
          "type": "slide",
          "settings": {
            "image": "shopify:\/\/shop_images\/SCL-TrifoldWallet-Flamingo-Front-003.jpg",
            "badge": "",
            "badge_color": "badge-1",
            "slide_label": "Kendall's Picks",
            "slide_url": "https:\/\/www.stoneycloverlane.com\/collections\/all-products\/products\/classic-tri-fold-wallet"
          }
        },
        "993da093-ef36-48eb-b9b0-9797e0aa70a5": {
          "type": "slide",
          "settings": {
            "image": "shopify:\/\/shop_images\/SCL-SmallPouch-Sky-Front-082.jpg",
            "badge": "",
            "badge_color": "badge-1",
            "slide_label": "Libby's Picks",
            "slide_url": "https:\/\/www.stoneycloverlane.com\/products\/nylon-small-pouch-2019"
          }
        },
        "5d9f4dfe-f5a1-4c2a-9daf-521b22d1f3be": {
          "type": "slide",
          "settings": {
            "image": "shopify:\/\/shop_images\/SCL-ClassicTote-Sapphire-Front-542.jpg",
            "badge": "",
            "badge_color": "badge-1",
            "slide_label": "Libby's Picks",
            "slide_url": "https:\/\/www.stoneycloverlane.com\/products\/classic-tote-bag?variant=39276992430160"
          }
        },
        "7559bbf5-b13e-4433-84d8-da8d6bad7530": {
          "type": "slide",
          "settings": {
            "image": "shopify:\/\/shop_images\/SCL-Keychain-Avocado-Front-029_SILO_V1.jpg",
            "badge": "",
            "badge_color": "badge-1",
            "slide_label": "Libby's Picks",
            "slide_url": "https:\/\/www.stoneycloverlane.com\/products\/classic-mini-keychain-wallet?variant=39667192332368"
          }
        },
        "44eda411-1334-471c-b040-c2736ec662df": {
          "type": "slide",
          "settings": {
            "image": "shopify:\/\/shop_images\/SCL-FannyPack-Sand-Front004_RT_V1.jpg",
            "badge": "",
            "badge_color": "badge-1",
            "slide_label": "Libby's Picks",
            "slide_url": "https:\/\/www.stoneycloverlane.com\/products\/classic-fanny-pack?variant=31677416407120"
          }
        }
      },
      "block_order": [
        "981a052e-dd1d-4776-9a58-4fc43a0787ea",
        "dd667108-d71b-43c9-ba51-6579d0795604",
        "8bb63a74-db0d-46cd-9ea4-60a123bc9178",
        "66e4b9a4-7b68-491d-a521-7c26d11c1b64",
        "993da093-ef36-48eb-b9b0-9797e0aa70a5",
        "5d9f4dfe-f5a1-4c2a-9daf-521b22d1f3be",
        "7559bbf5-b13e-4433-84d8-da8d6bad7530",
        "44eda411-1334-471c-b040-c2736ec662df"
      ],
      "settings": {
        "title": "Kendall's & Libby's Picks",
        "tabs": "Kendall's Picks,Libby's Picks"
      }
    },
    "16384522025fd5dfc8": {
      "type": "press",
      "blocks": {
        "7d500c6d-07ee-46c3-9302-aa3c6af636ad": {
          "type": "item",
          "settings": {
            "image": "shopify:\/\/shop_images\/Cosmopolitan-Logo.png",
            "title": "“39 Cute Weekender Travel Bags to Bring on Your Next Getaway ASAP”"
          }
        },
        "095a13fb-43bb-4009-9efc-01f6796a3d0d": {
          "type": "item",
          "settings": {
            "image": "shopify:\/\/shop_images\/ENewsLogo.jpg",
            "title": "“Bippity Boppity Boo! Stoney Clover Lane's Disney Princess Collection Is a Dream Come True”"
          }
        },
        "ee400ada-115d-4f9b-bd5f-7e8baf225e94": {
          "type": "item",
          "settings": {
            "image": "shopify:\/\/shop_images\/Forbes-logo.png",
            "title": "“Stoney Clover Lane Co-Founders – Forbes 30 Under 30”"
          }
        },
        "ace7bd41-d335-49c0-98fc-7cf36153bde8": {
          "type": "item",
          "settings": {
            "image": "shopify:\/\/shop_images\/NYMAG.png",
            "title": "“What Nicky Hilton Can’t Live Without”"
          }
        },
        "032f94fe-2b1f-433b-81f8-ea57725a11a8": {
          "type": "item",
          "settings": {
            "image": "shopify:\/\/shop_images\/glossy_logo.png",
            "title": "“Stoney Clover Lane’s Kendall Glazer on Recreating Instagram in Stores”"
          }
        }
      },
      "block_order": [
        "7d500c6d-07ee-46c3-9302-aa3c6af636ad",
        "095a13fb-43bb-4009-9efc-01f6796a3d0d",
        "ee400ada-115d-4f9b-bd5f-7e8baf225e94",
        "ace7bd41-d335-49c0-98fc-7cf36153bde8",
        "032f94fe-2b1f-433b-81f8-ea57725a11a8"
      ],
      "settings": {
        "eyebrow": "Recent Press",
        "cta_text": "",
        "cta_url": "shopify:\/\/pages\/add-ons"
      }
    },
    "1638452537c6ddb418": {
      "type": "gif-section",
      "disabled": true,
      "settings": {
        "video_url": "https:\/\/cdn.shopify.com\/s\/files\/1\/0588\/3540\/2941\/files\/Stoney_Clover_Pouch_Collection___Are_they_worth_the.mp4?v=1628165153",
        "button_label_1": "START CUSTOMIZING",
        "button_link_1": "shopify:\/\/pages\/customizer",
        "heading_title": "You design",
        "heading_title1": "The perfect bag",
        "section_text": "Choose from a variety of colors, patterns, and materials. Add letter and icon patches to make it uniquely you."
      }
    },
    "1638452678dad561b1": {
      "type": "video-section",
      "settings": {
        "video_url": "https:\/\/cdn.shopify.com\/s\/files\/1\/0096\/2392\/files\/SCL_-_Our_Process.m4v?v=1646241195",
        "heading_title": "We take care of the rest",
        "section_text": "Once you place your order, we gather your bag and pouches, create your custom creations by hand, pack it up with our signature iridescent gift wrap, and ship it directly to your door."
      }
    },
    "163845268893787614": {
      "type": "best-seller",
      "disabled": true,
      "blocks": {
        "39636a86-a48c-4112-943c-24e3542e2451": {
          "type": "slide",
          "settings": {
            "image": "shopify:\/\/shop_images\/4Q7A4678_1.jpg",
            "slide_category": "Our Partners",
            "slide_label": "Mickey and Friends",
            "slide_text": "Lorem ipsum dolor sit amet, consectetur adipiscing elit.",
            "slide_url": "shopify:\/\/collections\/mickey-and-friends"
          }
        },
        "356aa551-a7b8-40a1-8476-dc94f8e56a1f": {
          "type": "slide",
          "settings": {
            "image": "shopify:\/\/shop_images\/4Q7A1942_1.jpg",
            "slide_category": "Our Partners",
            "slide_label": "SCL x Disney Princess",
            "slide_text": "",
            "slide_url": "shopify:\/\/collections\/disney-princess"
          }
        }
      },
      "block_order": [
        "39636a86-a48c-4112-943c-24e3542e2451",
        "356aa551-a7b8-40a1-8476-dc94f8e56a1f"
      ],
      "settings": {
        "slider_position": "left"
      }
    },
    "163845297497d409f9": {
      "type": "text-image-section",
      "disabled": true,
      "settings": {
        "image_l": "shopify:\/\/shop_images\/Content_Right.png",
        "title_l": "Kendall & Libby’s Picks",
        "subtext_l": "Get inspiration for your one of a kind bag with a collection of Kendall and Libby’s favorite bags, pouches, accessories, and patches!",
        "slide_label_l": "Learn More",
        "slide_url_l": "shopify:\/\/pages\/about-us",
        "image_r": "shopify:\/\/shop_images\/Stoney-Clover-Lane-016.jpg",
        "title_r": "Experience SCL, IRL",
        "subtext_r": "Each of our stores offers a distinct experience, on-site customization, exclusive events, and special-edition patches.",
        "slide_label_r": "Learn more",
        "slide_url_r": "shopify:\/\/pages\/add-ons"
      }
    }
  },
  "order": [
    "main",
    "164624054545873d81",
    "16384522025fd5dfc8",
    "1638452537c6ddb418",
    "1638452678dad561b1",
    "163845268893787614",
    "163845297497d409f9"
  ]
}