{
  "sections": {
    "main": {
      "type": "main-page",
      "settings": {}
    },
    "16485653728a4ca51c": {
      "type": "featured-blog",
      "disabled": true,
      "settings": {
        "heading": "Blog posts",
        "blog": "",
        "post_limit": 3,
        "show_image": true,
        "show_date": true,
        "show_author": false,
        "soft_background": false,
        "show_view_all": true
      }
    },
    "1648565397ab8b05c4": {
      "type": "image-banner",
      "disabled": true,
      "settings": {
        "button_label_1": "Button label",
        "button_link_1": "",
        "button_label_2": "Button label",
        "button_link_2": "",
        "heading_title": "Heading title",
        "heading_title_2": "Heading title",
        "color_white": false
      }
    },
    "16485654142c0e1c4e": {
      "type": "collage",
      "disabled": true,
      "blocks": {
        "16485654144ad5b8bd-0": {
          "type": "video",
          "settings": {
            "video_url": "https:\/\/www.youtube.com\/watch?v=_9VUPq3SxOc",
            "description": "Describe the video",
            "image_padding": false
          }
        },
        "16485654144ad5b8bd-1": {
          "type": "product",
          "settings": {
            "product": "",
            "second_image": false,
            "image_padding": false,
            "secondary_background": false
          }
        },
        "16485654144ad5b8bd-2": {
          "type": "collection",
          "settings": {
            "collection": "",
            "image_padding": false,
            "color_scheme": "background-1"
          }
        }
      },
      "block_order": [
        "16485654144ad5b8bd-0",
        "16485654144ad5b8bd-1",
        "16485654144ad5b8bd-2"
      ],
      "settings": {
        "heading": "Multimedia collage",
        "desktop_layout": "left",
        "mobile_layout": "collage"
      }
    },
    "1648565457f7c25518": {
      "type": "press",
      "disabled": true,
      "settings": {
        "eyebrow": "Recent Press",
        "cta_text": "",
        "cta_url": ""
      }
    },
    "16485654778531cf16": {
      "type": "featured-collection",
      "disabled": true,
      "settings": {
        "title": "Featured collection",
        "collection": "",
        "products_to_show": 4,
        "show_view_all": true,
        "swipe_on_mobile": false,
        "image_ratio": "adapt",
        "show_secondary_image": false,
        "add_image_padding": false,
        "show_image_outline": true,
        "show_vendor": false,
        "show_rating": false
      }
    }
  },
  "order": [
    "main",
    "16485653728a4ca51c",
    "1648565397ab8b05c4",
    "16485654142c0e1c4e",
    "1648565457f7c25518",
    "16485654778531cf16"
  ]
}